fitType,Signal,errSignal,Background,errBackground,Background,errBackground,b,errb,c,errc
figs/keysFromMCsignal_expFreeBackground_2011.png,10328.661053097,167.525001088,15544.787605524,404.966577808,11803.230800066,364.321171674,-9.999999873,0.044753835-2.513992966,0.084728057
figs/keysFromMCsignal_expFreeBackground_2012.png,19724.241758659,220.430028256,22544.126445998,533.029561277,18612.012248409,494.914968790,-9.999999983,0.057354901-2.450711503,0.070640735
