\relax 
\providecommand\hyper@newdestlabel[2]{}
\providecommand\HyperFirstAtBeginDocument{\AtBeginDocument}
\HyperFirstAtBeginDocument{\ifx\hyper@anchor\@undefined
\global\let\oldcontentsline\contentsline
\gdef\contentsline#1#2#3#4{\oldcontentsline{#1}{#2}{#3}}
\global\let\oldnewlabel\newlabel
\gdef\newlabel#1#2{\newlabelxx{#1}#2}
\gdef\newlabelxx#1#2#3#4#5#6{\oldnewlabel{#1}{{#2}{#3}}}
\AtEndDocument{\ifx\hyper@anchor\@undefined
\let\contentsline\oldcontentsline
\let\newlabel\oldnewlabel
\fi}
\fi}
\global\let\hyper@last\relax 
\gdef\HyperFirstAtBeginDocument#1{#1}
\providecommand\HyField@AuxAddToFields[1]{}
\providecommand\HyField@AuxAddToCoFields[2]{}
\babel@aux{english}{}
\@writefile{nav}{\headcommand {\slideentry {0}{0}{1}{1/1}{}{0}}}
\@writefile{nav}{\headcommand {\beamer@framepages {1}{1}}}
\@writefile{nav}{\headcommand {\slideentry {0}{0}{2}{2/2}{}{0}}}
\@writefile{nav}{\headcommand {\beamer@framepages {2}{2}}}
\@writefile{toc}{\beamer@sectionintoc {1}{Motivation}{3}{0}{1}}
\@writefile{nav}{\headcommand {\beamer@sectionpages {1}{2}}}
\@writefile{nav}{\headcommand {\beamer@subsectionpages {1}{2}}}
\@writefile{nav}{\headcommand {\sectionentry {1}{Motivation}{3}{Motivation}{0}}}
\@writefile{nav}{\headcommand {\slideentry {1}{0}{1}{3/3}{}{0}}}
\@writefile{nav}{\headcommand {\beamer@framepages {3}{3}}}
\@writefile{nav}{\headcommand {\slideentry {1}{0}{2}{4/4}{}{0}}}
\@writefile{nav}{\headcommand {\beamer@framepages {4}{4}}}
\@writefile{toc}{\beamer@sectionintoc {2}{Data $\&$ Selection}{5}{0}{2}}
\@writefile{nav}{\headcommand {\beamer@sectionpages {3}{4}}}
\@writefile{nav}{\headcommand {\beamer@subsectionpages {3}{4}}}
\@writefile{nav}{\headcommand {\sectionentry {2}{Data $\&$ Selection}{5}{Data $\&$ Selection}{0}}}
\@writefile{nav}{\headcommand {\slideentry {2}{0}{1}{5/5}{}{0}}}
\@writefile{nav}{\headcommand {\beamer@framepages {5}{5}}}
\@writefile{nav}{\headcommand {\slideentry {2}{0}{2}{6/6}{}{0}}}
\@writefile{nav}{\headcommand {\beamer@framepages {6}{6}}}
\@writefile{nav}{\headcommand {\slideentry {2}{0}{3}{7/7}{}{0}}}
\@writefile{nav}{\headcommand {\beamer@framepages {7}{7}}}
\@writefile{toc}{\beamer@sectionintoc {3}{HERSCHEL Variables}{8}{0}{3}}
\@writefile{nav}{\headcommand {\beamer@sectionpages {5}{7}}}
\@writefile{nav}{\headcommand {\beamer@subsectionpages {5}{7}}}
\@writefile{nav}{\headcommand {\sectionentry {3}{HERSCHEL Variables}{8}{HERSCHEL Variables}{0}}}
\@writefile{nav}{\headcommand {\slideentry {3}{0}{1}{8/8}{}{0}}}
\@writefile{nav}{\headcommand {\beamer@framepages {8}{8}}}
\@writefile{nav}{\headcommand {\slideentry {3}{0}{2}{9/9}{}{0}}}
\@writefile{nav}{\headcommand {\beamer@framepages {9}{9}}}
\@writefile{nav}{\headcommand {\slideentry {3}{0}{3}{10/10}{}{0}}}
\@writefile{nav}{\headcommand {\beamer@framepages {10}{10}}}
\@writefile{nav}{\headcommand {\slideentry {3}{0}{4}{11/11}{}{0}}}
\@writefile{nav}{\headcommand {\beamer@framepages {11}{11}}}
\@writefile{toc}{\beamer@sectionintoc {4}{HERSCHEL Selection Efficiency}{12}{0}{4}}
\@writefile{nav}{\headcommand {\beamer@sectionpages {8}{11}}}
\@writefile{nav}{\headcommand {\beamer@subsectionpages {8}{11}}}
\@writefile{nav}{\headcommand {\sectionentry {4}{HERSCHEL Selection Efficiency}{12}{HERSCHEL Selection Efficiency}{0}}}
\@writefile{nav}{\headcommand {\slideentry {4}{0}{1}{12/12}{}{0}}}
\@writefile{nav}{\headcommand {\beamer@framepages {12}{12}}}
\@writefile{nav}{\headcommand {\slideentry {4}{0}{2}{13/13}{}{0}}}
\@writefile{nav}{\headcommand {\beamer@framepages {13}{13}}}
\@writefile{nav}{\headcommand {\slideentry {4}{0}{3}{14/14}{}{0}}}
\@writefile{nav}{\headcommand {\beamer@framepages {14}{14}}}
\@writefile{nav}{\headcommand {\slideentry {4}{0}{4}{15/15}{}{0}}}
\@writefile{nav}{\headcommand {\beamer@framepages {15}{15}}}
\@writefile{nav}{\headcommand {\slideentry {4}{0}{5}{16/16}{}{0}}}
\@writefile{nav}{\headcommand {\beamer@framepages {16}{16}}}
\@writefile{toc}{\beamer@sectionintoc {5}{Conclusion}{17}{0}{5}}
\@writefile{nav}{\headcommand {\beamer@sectionpages {12}{16}}}
\@writefile{nav}{\headcommand {\beamer@subsectionpages {12}{16}}}
\@writefile{nav}{\headcommand {\sectionentry {5}{Conclusion}{17}{Conclusion}{0}}}
\@writefile{nav}{\headcommand {\slideentry {5}{0}{1}{17/17}{}{0}}}
\@writefile{nav}{\headcommand {\beamer@framepages {17}{17}}}
\@writefile{nav}{\headcommand {\gdef \insertmainframenumber {17}}}
\@writefile{nav}{\headcommand {\partentry {Appendix}{1}}}
\@writefile{nav}{\headcommand {\beamer@partpages {1}{17}}}
\@writefile{nav}{\headcommand {\beamer@sectionpages {17}{17}}}
\@writefile{nav}{\headcommand {\beamer@subsectionpages {17}{17}}}
\@writefile{nav}{\headcommand {\beamer@appendixpages {18}}}
\@writefile{nav}{\headcommand {\slideentry {5}{0}{2}{18/18}{}{1}}}
\@writefile{nav}{\headcommand {\beamer@framepages {18}{18}}}
\@writefile{nav}{\headcommand {\slideentry {5}{0}{3}{19/19}{}{1}}}
\@writefile{nav}{\headcommand {\beamer@framepages {19}{19}}}
\@writefile{nav}{\headcommand {\slideentry {5}{0}{4}{20/20}{}{1}}}
\@writefile{nav}{\headcommand {\beamer@framepages {20}{20}}}
\@writefile{nav}{\headcommand {\slideentry {5}{0}{5}{21/21}{}{1}}}
\@writefile{nav}{\headcommand {\beamer@framepages {21}{21}}}
\@writefile{nav}{\headcommand {\beamer@partpages {18}{21}}}
\@writefile{nav}{\headcommand {\beamer@subsectionpages {18}{21}}}
\@writefile{nav}{\headcommand {\beamer@sectionpages {18}{21}}}
\@writefile{nav}{\headcommand {\beamer@documentpages {21}}}
\@writefile{nav}{\headcommand {\gdef \inserttotalframenumber {17}}}
