fitType,Signal,errSignal,Background,errBackground,b,errb
figs/Nominal_noPhiCut_noHRCcut_noExpFix.png,2457.133420375,49.716153189,170.869391800,13.532643726,0.921678669,0.076987900
figs/Nominal_noPhiCut_HRCcut_noExpFix.png,2207.539155146,47.088820588,47.583814912,7.559003639,2.129765872,0.344428935
figs/Nominal_noPhiCut_InvertedHRCcut_noExpFix.png,244.487001034,15.792980671,128.517851226,11.524146084,0.771273464,0.073597853
figs/MinBias_noPhiCut_noHRCcut_noExpFix.png,341.260484750,18.545381978,21.655086616,4.927978807,0.666165238,0.167754512
figs/MinBias_noPhiCut_HRCcut_noExpFix.png,306.796370192,17.573431958,3.199638481,2.282321238,2.041553211,1.406772827
figs/MinBias_noPhiCut_InvertedHRCcut_noExpFix.png,33.734514595,5.868576374,19.267013138,4.464788263,0.612495977,0.161849259
figs/Nominal_PhiCut_noHRCcut_noExpFix.png,2448.060825200,49.694215987,71.882074281,9.649272145,4.976138137,0.663987760
figs/Nominal_PhiCut_HRCcut_noExpFix.png,2203.388222549,47.109446588,33.525089154,7.022164519,5.752828612,1.217481570
figs/Nominal_PhiCut_InvertedHRCcut_noExpFix.png,242.505503069,15.792226775,40.429265336,6.873384618,4.546402398,0.982245691
figs/MinBias_PhiCut_noHRCcut_noExpFix.png,338.524672674,18.528143767,11.475970035,4.024582111,8.503230092,3.030638909
figs/MinBias_PhiCut_HRCcut_noExpFix.png,303.498820459,17.585049914,5.504282910,3.344822577,19.626818143,17.758136104
figs/MinBias_PhiCut_InvertedHRCcut_noExpFix.png,33.735264995,5.931890978,7.264326970,2.949115051,6.346449963,2.605571135
figs/Nominal_PhiCut_noHRCcut_ExpFix.png,2448.070479478,49.660631601,71.878573516,9.474625657,4.976155500,0.000000000
figs/Nominal_PhiCut_HRCcut_ExpFix.png,2204.553787194,47.069469317,32.446440840,6.580887697,4.976155500,0.000000000
figs/Nominal_PhiCut_InvertedHRCcut_ExpFix.png,242.173866850,15.763727572,40.832866849,6.858267523,4.976155500,0.000000000
figs/MinBias_PhiCut_noHRCcut_ExpFix.png,338.525483525,18.506738140,11.480567129,3.925729773,8.517854910,0.000000000
figs/MinBias_PhiCut_HRCcut_ExpFix.png,305.172335785,17.541988360,3.815055092,2.519110515,8.517854910,0.000000000
figs/MinBias_PhiCut_InvertedHRCcut_ExpFix.png,33.385050138,5.908096761,7.614362108,3.019149758,8.517854910,0.000000000
